%YAML 1.1
%TAG !u! tag:unity3d.com,2011:
--- !u!1045 &1
EditorBuildSettings:
  m_ObjectHideFlags: 0
  serializedVersion: 2
  m_Scenes:
  - enabled: 0
    path: 
    guid: 00000000000000000000000000000000
  - enabled: 1
    path: Assets/Scenes/MainMenu.unity
    guid: 9124050538d11a1438a36cfe3d007237
  - enabled: 1
    path: Assets/Scenes/Keynne.unity
    guid: 4ff92211664dd1049a1453850b29efe6
  m_configObjects: {}
